pred,true
665.682064,665.681964
1.68422008,1.68422008
195.515744,195.514844
2775982.38,2757082.38
8.26622560,8.26725660
27342.816,26942.8061
9076.24764,9076.24625
793.31101,783.310005
70.8174961,70.8185011
146.209743,136.209753
3743.96408,3742.97408
2701354.51,2797144.51
28.8183424,28.8192424
903332.2369,911232.237
12.27438410,12.2743880
69258.0577,68658.0577
2.67380133,2.67270133
38574.2974,39374.2974
91749861.6,92158461.6
72601160.3,72630770.3
74435014.10,74505814.1
289.520134,279.522904
1601.76341,1701.76341
910.7352350,910.736235
5.33018581,5.34018581
899147.27,889147.279
99.581793,99.5817030
56.4371247,56.4362147
175558.26,167958.267
347.134563,347.134563
3763.80730,3763.80730
8896113.29,8897123.29
2980594.9,2881194.90
5.88804511,5.88393621
9099686.0,8928887.00
583939.624,582339.624
16702.1412,16002.1412
73577182.5029,72877482.5
9.47957748,9.48047848
8141.76361,8141.76951
67.0756157,67.0756157
46752636.6,45840036.6
4.20325400,4.20325400
8.93967174,8.93967174
45222.9053,45822.8953
6246817.04,6219207.04
178859.2788,174459.268
971.821107,971.821307
77999867.99,67006068.0
80267.1731,80667.1731
560.275325,560.275196
64361878.5,64361878.5
1.68743255,1.68743255
8489.4332,8489.43125
81886998.3,81786688.3
9134.53271,9134.53371
40123343.59,39723443.6
866039.49,857039.488
17.4950172,17.4950172
4599.597380,4599.59718
6959478.67,7034978.67
47.4343329,47.4242040
458.617666,458.617667
53.3559434,53.3559434
523.975317,517.975317
879.427323,879.327423
11391863.2,11107263.2
704780.5120,704580.511
7262.45802,7372.45802
95920951.8,95929749.8
80448.6537,79848.6537
93.9379320,93.9379320
45.2033528,45.2033528
96638.4515,96538.4445
5564122.78,5554422.78
58.3365226,58.3365026
404090.998,404890.998
4307389.36,4350089.36
6.08947722,6.08947722
5.60571079,5.60571079
774.052130,774.052130
74.8048838,74.8068838
49151.5935,49061.5935
9398567.2,9408567.19
386436.25,386436.256
843158.362,845958.362
2.86729692,2.85729692
145.317262,145.309072
7733013.25,7631713.25
7115041.58,7115141.59
89455.5625,89755.5625
499322.599,499322.507
3526.10227,3526.10027
6247989.87,6258189.87
8837.52638,8837.52638
8132624.28,8133624.28
1659330.39,1562530.39
894124.502,883224.502
6428482.17,6468882.17
5095.595350,5095.59515
5.45470353,5.45470353
141.190418,141.190418
58.332948,58.3328489
98196.2220,98696.2220
1570.66107,1570.66107
83585106.4,83384506.4
68.9071534,68.9061534
273764.144,273764.144
295.139185,295.128185
2.71711343,2.71611343
6584111.6404,6574711.64
123515.7750,122515.775
7.31457576,7.31457366
3.17529171,3.17529171
522.572363,514.572365
36.9181868,36.9190018
55354.7,55154.7067
2459.0934,2359.08836
36.2345354,36.2346254
681.676772,681.676772
71.3723880,71.3723880
6.18926642,6.17907642
193401.2630,192401.263
33207046.5,31688136.5
3964.8875,3964.88747
843.792513,843.792513
2993181.8,2993081.80
9.21195546,9.21265646
192.848951,192.838951
898.070172,898.070172
791.459534,783.459534
176.195180,166.195180
39145.9191,38845.9191
3.68309901,3.68119901
30326.9926,31026.0006
2347809.44,2379819.44
49009860.69,49200760.7
488076.5169,479976.516
2.06994422,2.06185322
1.09284794,1.10183792
514.129544,524.119514
3829137.57,3833937.57
23.8618768,23.8618768
10322458.8,10230358.8
6068806.80,1509114.80
8987154.35,8088254.35
2520.03882,2520.02882
38188.4674,37788.4674
45657084.7,44502084.7
1466.33297,1476.33297
5.87500285,5.87500285
276548.7637,277348.673
82.3999552,82.3999752
4935891.739,4836591.74
75.6144288,75.6133988
343323.352,360425.342
95503600.9,95513700.9
682.619505,682.621405
384.711412,384.711212
6.21528311,6.21328311
3350388.21,3341288.21
14115.4924,14915.4924
7580279.39,7570879.39
74179.1697,74079.1597
6.13606722,6.13606722
33674.3873,33464.3783
5.51754726,5.51744726
27352454.19,26262354.2
4.37893137,4.36953137
9201258.85,9217458.84
4818.45169,4918.45169
982025.4,986415.405
60783.5388,60873.5388
2166.56351,2166.56351
1.17844003,1.17844003
2983.37894,3083.36815
32.9112037,32.9112037
76936409.1,76935309.1
308.551496,408.550387
929370.77,918970.767
94523.1269,95523.1269
57296949.2,57306249.2
64602.5309,64092.5309
5047.06085,5047.05085
46.1870099,46.1740099
62987322.2,62887322.2
6033145.61,6101345.61
70888870,70715970.0
40936462.5,40146162.5
869.369025,869.370125
462647.36,464347.361
193847.39,195847.393
839348.76,824938.761
2534132.869,2557232.86
36.5477761,36.5416821
50210.2234,50610.2194
607532.0049,607532.005
30794887.3,30693687.3
14.8073948,14.7982948
9.03924696,9.03024696
7367.7765,7367.76649
10125133.6,10116923.6
39076.6827,39276.6727
36759529.5,36149629.5
7433122.53,7463622.53
8.23740516,8.23740516
848.632187,848.622207
11195522.5,11135622.5
653338.95,653938.949
10792091.4,10714191.4
7.56869502,7.55839502
663.651543,653.651543
385561.22,385561.214
5390185.63,5359185.63
1517.9043,1517.90528
745.341220,735.340230
41005.2890,41205.2760
48.41902470,48.4190141
97082943.10,97032243.1
828.886094,828.886994
38.4926477,38.5015677
87.6062671,87.6062671
74.5035026,74.5035026
196.343341,196.341341
3.03382531,4.03382231
7.47206027,7.48107027
75388.0610,75888.0709
3248805.14,3297105.14
88137.2710,87837.2711
32341704.7,31611114.7
4.40056752,4.40056752
190898.5060,194898.506
8.71667509,8.71667509
52734982.6,51604482.6
7729643.47,7677543.47
1.17938740,1.16938740
6996127.9,6897727.90
3794756.6539,3784066.65
7854361.89,7854361.89
2393126.61,2332326.61
944489.141,944289.141
615.568699,615.558691
70327.4533,69727.4533
3.57334528,3.57355528
2547446.03,2557146.03
82937.2112,82637.2113
60451854.2,60352344.2
53482.7988,54182.7878
923.998229,923.909229
5.38972101,5.39072101
452.179480,452.179382
69480.7854,69880.7855
85.183329,85.1833197
9.16034765,9.16025665
86509086.4,86518176.4
651.874341,631.874341
91804.7425,92104.7451
8.97360256,8.97480256
3.60146801,3.60146801
3913805.89,4011105.89
967.088637,969.078727
796.014684,796.004584
9.40986567,9.40076296
67114.2502,67014.2602
509565.3260,508565.326
28951671.2,27852271.2
866.756480,866.756480
9501261.12,9614463.12
9016.49377,9016.48777
951.510316,951.521016
40961.9794,40660.9694
208.344599,218.344599
9960240.14,9960640.14
74901235.6,75001925.6
4.48699731,4.48699731
9438.38858,9438.38858
5.19533224,5.19523224
288.325422,288.325422
609909.054,610209.055
4177256.35,4166256.35
6033956.43,6032056.43
739458.698,733558.692
702.984529,690.984531
5767145.61,5756545.61
771.1023,761.112211
97453341.5,96706239.5
85458.3317,85258.3317
4124.33017,4124.33017
2.67022805,2.68022805
7.08667052,7.08667052
2909472.14,2891272.14
71635651.6,71962551.6
8901.84589,8901.83586
16787.96,16077.9580
75.67832090,75.6783725
121453.5718,129453.572
487869.5920,475869.592
735.289415,735.279115
67350.4877,67750.4878
8.34720665,8.33728655
334.024928,334.024928
33854022.7,32794122.7
38.094055,38.0940550
688.159416,698.159416
9996263.47,9886663.48
6.83516854,6.83516854
570.216688,560.206688
2292.56764,2202.56364
27753360.1,27763260.1
92237.4851,92037.4851
6.01242962,6.01242962
787.99055,777.000625
378827.85,377127.859
92455409.8,92479909.8
3.50319951,3.50319951
9.81368888,9.81368888
7115.57465,6815.57465
28236.7072,28726.7082
24.9431292,24.9403292
594.491550,594.491550
33332.6555,32832.6555
7701.39595,7801.38995
450.536767,450.535657
65466078.6,65376078.6
92.9742054,91.9842054
5106.677729,5106.67530
4829341.4,4842041.40
74.93084450,74.9307435
7719.618440,7709.61723
8497640.2459,8477740.23
12635.7965,12635.7965
694.687785,694.670585
406871.709,393371.700
18554851.0,18345851.0
2095145.86,2132445.86
361.519545,371.519945
298842.2470,298442.247
83918187,83987098.0
68.4647534,68.4647534
3729.4,3729.40272
854707.46,855007.461
62432279.0,63233179.0
161.7177912,163.724802
15444.4159,15444.4150
1336145.86,1269945.87
443687.32,438987.318
11.4088733,11.3098733
853.706911,853.706941
87696527.59,86585527.6
398076.25,388266.267
60863968.3,60863968.3
4907.152960,4907.15136
4.50959843,4.50959843
6402.76355,6402.76355
13428.6079,13438.6079
53.4543301,53.4532301
56657.0283,57057.0283
3346.60364,3356.60464
5131.40772,5231.40262
756946.027,759646.027
563829.8930,562629.893
4.35200786,4.35200686
6811.263360,6809.26336
998.056654,898.049675
43.4177996,43.4169196
34.3730943,34.3639442
20954.5196,20494.5186
93899691.7,93899091.7
83949.3400,83949.3310
9.48859670,9.48859670
258.693032,248.693032
43454.1751,42154.1741
98.9677766,98.9687766
3.32346593,3.32425593
93828.7372,93428.7372
883427.102,876327.112
41990.074308,41302.0744
840.098825,840.098825
81766358.6,82566858.6
3.64578094,3.64578094
1754.481750,1654.49265
26.7323223,26.7323423
988334.1340,939832.144
9.27828651,9.27828651
3196.49578,3096.49638
187.591453,187.591353
6183.530101,6183.54101
81.3359686,81.3359686
9647.9670,9635.96680
554.330925,544.330925
650.563388,748.553180
456021.716,456221.716
20643.7914891,20143.7995
9164.486380,9164.48727
8569146.08,8570446.08
3126.29339,3126.29389
1859339.21,1848539.21
941688.054,950088.054
17.9869199,17.9869199
20592393.8,20816193.8
56764221.1,55238821.1
395870.676,397070.666
682.299630,672.299630
605.216093,605.205993
11207.22,102366.226
111234.15,119734.149
59585.4926,58585.4926
79327.0452,79627.0432
8.75690048,8.75519048
829363.65,831953.652
6966896.34,6872896.24
7.73525369,7.74346369
330.357714,330.357714
34.33344570,34.3333457
349955.06,348355.059
651239.2122,658139.203
2379221.929,2378421.93
410.624143,420.626243
951.822999,951.823099
34389.2482,34389.2372
4277117.38,4188617.38
37.8100608,37.8101808
58.0720584,58.0720084
1635147.66,1608547.66
81.5144540,81.5234540
29210.4115,29110.4116
3526.89727,3526.89728
9977180.2,10068180.2
889687.004,880587.008
75982671.2,75222171.2
43.113639,43.1136482
4.20805379,4.20805379
80015.6905,79815.6905
7.74447597,7.73547597
193.934391,193.934391
79166.93980,79466.9398
6538.06964,6538.06764
34190569.5,34189469.5
973.831121,973.831921
912902.4622,908402.463
598980.4200,598880.420
60.9961934,59.9961934
12999128.7,12948228.7
30751.68,30151.6900
565.649217,555.639157
359983.459,349783.458
5589.30057,5489.30057
827338.27,824818.282
15441461.0,16171662.0
6819.44886,6819.43786
996.262553,996.262553
42.1919443,42.1919443
5866.4201,5866.41200
60.4169976,60.4189886
56682199.1,46482199.1
5701270.0289,5691470.02
6186.35214,6176.35214
6349924.48,6339724.48
9103.36239,9203.36139
4365981.34,4365082.34
33207.4970,32607.4870
7.60827567,7.60827457
6.47993351,6.47192351
4307.1770,4317.17810
8.83125121,8.83125121
810811.804,810811.805
8159.1423,8169.14730
4.98189995,4.98199995
457.191349,467.200299
442.307206,442.307206
14491645.2,14859745.2
6.73451151,6.73551151
5540.72718,5540.72718
47.9994281,46.9994281
64359825.4,64647425.4
34490513.1,34410613.1
43879.60,42879.6090
75606.6680,75406.6680
1.68393320,1.68393320
633.3558,633.355810
31.0690897,31.0581987
4567443.86,4553743.86
4010.21748,4010.21048
886884.7440,887484.744
4568145.87,4569045.87
68.7932724,68.7932724
382508.1,382608.093
4.86478527,4.86478527
1.58538148,1.57538148
554.966194,554.976204
66952739.7,65952739.7
39368.6365,38768.6274
4.38118843,4.38218843
826137.778,814537.788
3983.62504,3883.62504
46.7297469,46.7297469
9290034.3704,9309124.38
1025.86715,1025.85854
392.7111230,392.710113
972.938709,972.938409
