pred,true
56633.7,56733.7
86.943,86.9416
380.58,370.586
4627.07,4627.07
32002,31727.5
366.13,366.133
8.582610,8.58231
7.17463,7.17463
9127.90,9127.90
7338.33,7353.32
8.39134,8.39436
886.5960,878.595
3183.8,3073.80
815.5,925.511
6.11900,6.11900
44.8604,44.8604
87406,87206.7
56859.9,46859.9
87.3588,87.3588
71.8471,71.8471
45.0255,46.0155
19120.2,19220.2
64188.3,65788.3
49.9668,49.9568
17506.4,16406.4
55.5245,55.5236
1414.35,1514.35
5608.95,5608.95
93358,83258.1
96.62760,96.6272
63.2311,63.2311
16.4616,16.4616
38.6728,38.6768
52727.1,52327.1
9811.3,9811.31
88196.4,88496.4
422.019,512.009
62419,62419.0
818.991,838.981
2960.97,2960.96
7957.88,7957.89
20.6307,20.6207
60673,61563.3
6.16673,6.16673
854.707,944.707
244.703,254.703
36261.9,36761.9
88669.6,88479.6
8.2939,8.28314
31.2853,31.2943
7.91458,7.91758
6.62985,6.62185
8.88931,8.87731
41.4142,41.4114
4.88883,4.88963
181.927,181.926
12017.2,12707.2
39.2842,39.2802
88180.1,88780.1
77884.3,77684.3
96.7899,96.7899
27353,26853.7
7592.038,7492.03
91.1488,91.1388
1.50986,1.50986
895.036,893.036
1.6863,1.68530
44.6741,44.6832
84406,83606.8
10.1642,10.1642
781.798,781.798
916.29,916.290
7170,7270.22
181.27,181.275
3703,3703.73
463.396,453.386
9.5454,9.54640
748.45,738.449
56415.8,56115.8
88196.2,89096.2
45345.1,45535.1
90.7239,90.7139
816.6490,816.649
34375.2,33875.2
5.27496,5.27456
45140.4,45640.4
95267,95667.4
586.9610,578.961
368.5458,378.545
4981,4981.44
748.205,858.215
2.28550,2.27515
3157.14,3157.14
16.1286,16.1236
2224.5899,2214.59
8948,8948.85
510.968,518.968
82.7689,82.7589
35236.2,35936.2
72.8936,72.8936
77.5309,77.5309
6.81034,6.80324
367.9950,267.995
5.53495,5.52495
91.2367,91.2287
1.65349,1.65049
139.572,139.572
576.4670,574.467
33235.7,33435.7
5.01673,5.01493
4.33295,4.33395
4.66356,4.67256
68490,68490.9
3563.1,3563.10
2366.04,2366.04
38.967,38.9674
43.4703,43.4703
58.9736,58.9736
5.86446,5.87146
9.20205,9.20105
1.2153,1.21534
1202.15,1212.15
52002.8,51405.8
6770.01,6770.01
49757.4,49657.4
5302.15,5302.15
7257.95,7357.95
47641,47642.0
5452.00,5452.00
199.927,199.937
1.634,1.62426
81157,80257.7
99232,99222.6
4677.26,4577.27
48774,48874.9
28.5692,28.5792
196.12,196.217
95.5086,95.4976
19.6832,19.6822
29007.5,28607.5
73.4505,73.4605
69.9076,69.8976
84245.9,84545.9
30404.7,31004.7
797.926,797.926
207.4040,197.404
97972.5,97172.5
727.54,717.542
15.5536,15.5536
884.96,888.958
5201.72,5101.72
11997.4,11897.4
847.899,847.791
7460.47,7460.47
6299.48,6299.48
335.909,345.909
5514.4,5514.39
37.9373,37.9273
6573.65,6573.65
6.53340,6.53340
3690.00,3591.00
4.87545,4.88545
413.5040,413.504
47137.7,46337.7
7564.9,7554.90
82.4814,82.4814
629.3180,639.308
3.19093,3.20103
8331.8,8331.84
77.2212,77.2212
883.205,883.205
1.25774,1.25774
70.1523,70.1533
744.893,742.893
47279.2,46879.2
3.07372,3.06472
91797.2,91887.2
59179.8,59179.8
33297.7,32907.7
68698.2,68388.2
43.4863,43.4863
50315.0,49815.0
5279.25,5179.25
460.906,460.906
9.166050,9.15794
1.603620,1.61262
94397,94297.9
45774.8,44874.8
8875.9,8875.90
54361.7,53761.7
201.116,201.116
9.73572,9.72672
9800,9900.76
48.7662,48.7662
43.8950,43.8950
48.8001,48.8015
32.3532,32.3543
52.0864,52.0864
69180,68580.1
49.6949,49.6948
971.983,971.983
42002.6,41582.6
6189.27,6189.28
97.7373,97.7363
38.7476,38.7376
32.5023,32.5023
69077.6,69767.6
677.23,669.232
5.66613,5.66613
23.7932,23.7922
302.723,292.723
30352.6,30842.6
30.6384,30.6384
744.820,754.820
653.657,553.667
6875,6865.09
5.0890,5.08902
104.893,104.893
420.578,420.588
71615,71815.6
31729,32129.6
18105.7,17605.7
59494.8,59894.8
10997.6,10797.6
21.2309,21.2309
2274.43,2274.43
17592.5,17892.5
48.0886,48.0796
342.63,342.638
31765.7,32365.7
996.2,996.204
779.6,759.708
73.4752,73.4452
9142.06,9142.06
3.99299,3.99299
3.5354,3.53551
89808.5,90708.5
75647.3,75047.3
80506,80106.3
25125.1,24815.1
718.13,738.139
5593.71,5493.71
3.97768,3.96958
60126,60316.3
919.488,919.397
20783.4,20253.4
157.2168,147.216
5954.70,5954.70
8.52718,8.51918
9.99602,9.99602
34293,34293.9
43.4920,43.5020
24275.6,23175.6
1013.37,1103.37
18.5971,18.5971
697.507,599.507
4.11092,4.11092
85603.0,85613.0
8.40217,8.41817
1.4345,1.43455
81.5719,81.5719
14126.8,13526.8
801.42,701.429
830.105,830.105
69170.2,69760.2
246.347,236.353
52760.3,43060.3
8.54170,8.55105
17.3376,17.3276
3971.67,3971.67
306.1210,306.121
4362.35,4262.35
818.87,916.873
6.20861,6.20861
7.3347,7.33472
77.7852,77.7852
33196,33296.2
18.5532,18.5532
9.16396,9.16396
22214.8,22514.8
3.80101,3.80091
263.498,263.498
35000.1,34700.1
21129,20529.6
64.945,64.9445
734,72683.6
4787.16,4787.16
64.5792,64.5792
6.17954,6.17854
8.75342,8.75342
44146,44046.2
1375.95,1375.95
154.665,154.675
550.693,550.683
5774.46,5674.46
3.84943,3.85143
51639,50639.2
7194.29,7194.29
33126,33426.2
490.7050,500.705
9.58550,9.58180
7.68690,7.68590
56.3571,56.3571
77.1494,77.1404
60644,60034.2
5462.72,5464.72
4981.739,4981.74
933.822,933.822
4.92576,4.91576
431.904,431.904
25.9403,25.9403
5.76376,5.76376
4581.07,4481.08
56.6784,56.6682
8825.86,8825.86
45.3268,45.3268
70.6440,70.6440
3647.17,3747.17
230.594,228.594
77.2340,77.2231
46.2465,46.2465
33.8778,33.8778
4149.55,4149.55
25.1345,25.1345
4.35009,4.35909
5597,5597.60
8.81859,8.81859
58153,58054.0
43887,43785.3
1.17224,1.17224
49.8756,49.8746
29337.3,28637.3
7.37666,7.36766
1.69803,1.69633
158.81,158.813
34457,32847.3
53131.2,53531.2
47806.1,47206.1
65.4552,65.4452
51211.9,51111.9
500.3265,500.320
5.02306,5.02306
8.67827,8.67827
68.5076,68.5046
3.54343,3.54493
5.056,5.04978
905.862,895.842
897.0830,897.083
58414.9,58114.9
797.278,889.278
16339.3,16239.3
9.303340,9.31313
782.5460,762.546
6.7047,6.70479
8.04149,8.04149
749.61,758.612
9834.80,9834.80
750.1980,750.188
4.20665,4.19965
891.072,891.062
2.83801,2.82911
84817,85417.4
5753.854,5753.85
84.8594,84.8594
93364,93364.2
37.3778,37.3768
9528.61,9428.61
9592,9692.72
705.57,705.568
1795.731,1785.73
996.34,986.340
42775,42275.3
588.0999,580.001
56017.1,56027.1
68576,68476.3
88313,89004.0
2.12251,2.12151
853.324,853.324
231.81,231.810
1.01436,1.01436
9885.33,9785.33
90.5973,90.5983
8649,8839.19
5972.7,5972.74
5578.7,5578.70
467.2,467.198
4.39872,4.39872
64302.1,64102.1
996.23,996.231
53.063,53.0520
8.66972,8.65972
797.824,887.823
844.658,844.658
5.89455,5.89555
84.4575,84.4575
8.890150,8.89025
8.638,8.63795
9.83056,9.83056
140.24,140.240
14.9352,14.9252
71.9195,71.9195
953.7749,953.775
2.28294,2.28874
1213.06,1211.06
311.5,301.490
74.1749,74.1749
82.2456,82.2447
48697.6,47897.6
8201.7,8201.70
96128.8,95828.8
5.23261,5.23261
74.6480,74.6480
90244,89944.9
18553.2,18453.2
55.8132,55.8132
6515,6515.00
43.7848,43.7788
806.739,806.749
61169,60469.5
83.0840,83.0820
61906.0,61906.0
11.4103,11.4123
91736.1,91636.1
95206,95916.2
645.815,645.817
851.631,851.631
79.2062,79.2062
62.6173,62.6073
199.547,199.544
47461.8,47761.8
5492.11,5482.10
68.3058,68.3058
6109.57,6099.57
15.54741,15.5275
186.442,186.442
16.9604,16.9594
25236.89,24936.9
1486.72,1386.72
8.96099,8.96099
41.1730,41.1730
16120.7,16220.7
11196.1,11896.1
76.3567,76.3567
5704.35,5604.35
24128.6,24328.6
10.0710,10.0710
714.050,708.050
88.1457,88.1357
2.55137,2.55037
71561.2,71561.2
167.817,167.817
78.3918,78.3948
12105.9,11915.9
7177.95,7277.95
64.6305,64.6305
4.64960,4.64560
75120,76310.5
45442.3,45042.3
11166.0,11166.0
50.0120,50.0120
82.4762,82.4762
65.84890,65.8519
73700,73700.4
3365.02,3365.02
1.3889,1.38887
80180.3,80480.3
1725.17,1725.17
9498.0,9398.00
5940,5940.94
90270.3,90070.3
7.3114,7.31215
408.0740,408.074
25343,24643.7
55.1389,55.1389
55893.5,54193.5
4.00752,4.00052
66130.0,66420.0
130.387,130.387
6.39888,6.39988
81822.1,81222.1
2770.9,2670.91
86.2264,86.2224
34.9797,34.9797
954.94,964.941
6880,6780.98
1.35997,1.34897
796.976,796.876
110.792,110.782
15671.0,15871.0
44988.0,44988.0
39245.0,38845.0
94.8538,94.8538
453.23,453.231
10.6417,10.6417
64301.5,64401.5
88180.7,88170.7
322.49,322.496
9155,9255.14
5.82514,5.82514
7.85672,7.85672
