pred,true
9.968245,9.968245
90.303350,90.30325
8.118361,8.117261
173576.3,176276.3
89.79802,89.79802
3.563611,3.563611
6.049350,6.059350
76.297860,76.28186
1323.69,1323.690
4.184178,4.183178
50774.08,50974.08
428449.3,420449.3
8.673533,8.673533
721.2957,721.3057
22.3714,22.37237
17336.24,17536.24
880.3453,954.3653
30.72312,30.72413
1.111320,1.111320
10396.039,10296.04
30506.27,30006.28
47408.49,46708.49
9.005025,9.005025
7.656400,7.656400
74460.47,74460.47
61.53886,61.53786
6.727431,6.727431
808879.1,802579.1
624444.2,633544.2
598968.1,590468.1
219.9920,218.9920
567.2488,567.2388
2664.9380,2664.938
24.154560,24.15546
984551.0,981351.0
36.50597,36.50637
92250.68,92550.68
9147.3172,9047.316
79.59895,79.59895
891206.5,897306.5
7.159668,7.159668
7511.55,7511.551
70.1567,70.15674
15.52282,15.52282
2.726098,2.726098
293.2098,293.2109
657.73829,657.7282
92241.639,92141.64
896060.3,895860.3
304523.8,305523.8
249915.8,238615.8
94882.4,94882.39
5415.935,5415.937
24333.25,24623.25
44983.14,43983.14
8288.84,8288.838
67.09490,67.09390
13.79309,13.79009
58.134360,58.13516
402329.8,402329.8
89.80419,89.80219
1.087964,1.087964
6.833734,6.833734
91230.739,91320.73
10974.23,10974.24
14.49510,14.49510
322875.2,323875.2
85.48189,85.48189
50160.11,51260.12
3.788213,3.779164
3.724862,3.724562
7148.3992,7148.309
7915.919,8015.908
3.999771,4.000671
55.09812,55.08802
8.296284,8.196284
6355.502,6255.502
5447.664,5437.664
5.604879,5.604879
616.8687,506.8687
526.5779,526.5679
2.119015,2.113015
91307.0,91507.00
2.090450,2.090460
651075.1,650975.1
46.5149,46.51340
2772.39,2772.393
816153.1,816153.1
500405.1,500005.1
1941.5,1941.509
845.8592,945.8492
60.960440,60.96014
78.53491,78.53491
8.970813,8.970813
5054.271,5054.271
443904.7,451904.7
1209.085,1209.085
1982.241,1982.241
880036.5,890036.5
3182.907,3082.907
487566.4,487566.4
148962.7,138962.7
839180.3,844680.3
43.54380,43.54380
269833.6,268123.6
4.764106,4.764098
9.291664,9.291664
6.580455,6.580455
428220.6,433120.6
9.144082,9.132982
307746.3,306246.3
907279.2,907379.2
772054.20,771154.2
185501.9,187600.9
69297.77,69197.77
636.7701,626.7702
9.764408,9.764408
439527.8,430827.8
207949.7,202949.7
70218.4580,69818.45
849012.20,850812.2
2.992246,2.992246
88774.53,88884.53
61.54031,61.54031
503720.3,503720.3
760.9247,760.9247
49.9536,49.95360
4619.7950,4619.785
710.0851,711.0851
65.93328,65.93288
71.30218,71.30318
920684.9,919684.9
2618.58,2620.580
3.235517,3.225517
657.8075,657.8075
1.258489,1.256489
58.18341,58.18041
3.071338,3.071338
22002.9200,21506.92
931.4562,931.4662
37893.8,37193.81
576693.7,573803.7
89498.66,89598.66
26.59444,26.59194
76361.25,76371.25
7990.56,7890.559
338.5240,328.5240
27385.831,27085.83
6.998158,6.998158
7.038709,7.038709
83.2926,83.30254
72490.75,72490.75
107.6588,107.6588
62417.75,63217.75
26126.66,25926.66
512.1,512.1002
192255.0,193355.0
59677.76,59077.76
634355.9,635255.9
663.2235,663.2235
6.309585,6.308685
35.46768,35.46568
20.94315,20.94315
5146.2,5146.203
353571.3,352571.3
3925.037,3925.027
1313.3460,1413.345
11334.09,10434.09
45.76988,45.77188
4.498312,4.499422
231804.1,232204.1
1.538658,1.538658
76208.9,75708.91
72.26212,72.26212
3283.7640,3283.764
1.816496,1.818496
5.059226,5.059226
4.024868,4.024868
3.687464,3.687474
7242.7,7232.701
39.76691,39.76691
8908.7,9008.702
5944.0750,5944.075
77.00319,77.00909
344.9865,344.9865
546.4279,536.4271
590585.0,591485.0
350.4975,350.4975
415.0051,413.0052
7620.119,7620.119
8455.8,8345.798
912339.9,905939.9
42002.35,41346.35
6397.799,6397.709
658.4550,638.4451
2837.0440,2827.044
794.2590,784.2590
78.013580,78.01778
5033.727,5033.727
3676.793,3586.783
47.43857,47.44057
588016.1,586316.1
4.901112,4.900112
797.095,797.0849
851.790,8521.780
401.73880,411.7387
5.614167,5.614167
958227.2,949227.2
6.157652,6.157652
51.60310,51.60310
1122.411,1032.411
509.6882,499.6882
56.38446,56.38046
9966.2,9966.210
26449.17,27049.17
997.4864,997.4774
3.550127,3.560027
4.999419,4.900619
221684.9,221584.9
396786.9,396686.9
21.43171,21.42971
79659.66,79659.66
841.8706,841.8706
72469.43,72469.43
205563.11,214163.1
2538.38,2538.388
50579.67,50967.67
5.038328,5.038328
2016.6,2016.606
791.8009,791.8009
719.8913,729.8913
5078.211,5078.201
788296.2,787296.2
6079.98,5979.977
634332.4,632632.4
69160.73,69960.73
17.1566,17.14661
207967.3,213167.3
682771.4,677071.4
46.73111,46.73111
4156.621,4156.626
9.496838,9.486218
907311.1,910921.1
43.54754,43.54784
76702.29,77404.29
58.469260,58.46816
73.07184,73.07084
3208.624,3208.614
844214.1,834414.1
2.356434,2.354454
552944.9,552944.9
8559.817,8459.797
30952.67,30452.67
198.8519,198.8519
85.35236,85.36136
63472.26,63572.26
406.2551,406.2551
3.438982,3.428892
29.8957,29.89567
426483.1,434983.1
136.5234,136.5213
3.673119,3.673119
4044.516,4034.516
85921.66,85821.66
34.99209,34.99179
3.858510,3.859510
7.293763,7.293763
1378.487,1378.473
58.52293,58.52323
381.2854,381.2853
541650.3,538250.3
703686.5,702886.5
6.698474,6.688374
684086.1,682986.1
4952.9560,4952.956
632.1821,632.1821
494.7994,494.6966
1135.2999,1135.290
8367.729,8467.729
61130.072,60530.07
88.37957,88.27957
839122.6,838422.6
998143.1,988143.1
72.78191,72.78181
519.2783,529.2783
6199.13,6299.129
21717.9,21107.91
1.933818,1.943708
828.4778,828.4777
33387.47,32887.47
8.412051,8.412351
2216.299,2206.299
39.65215,39.65415
76.910560,76.91058
1.792523,1.792523
4.397897,4.397897
291.0900,291.0900
49652.639,49464.63
9073.75,8963.752
66.37636,66.37636
8.836683,8.836683
5642.105,5622.105
50590.61,50590.61
932.43,932.4330
30.45861,30.45841
2.245601,2.245601
914.2441,914.2441
69.84781,69.84781
27643.18897,27033.18
7.305433,7.305433
493.7022,493.7022
7.359288,7.359288
53.68613,53.78613
123.3108,123.2998
785.5655,780.5655
6600.1979,6900.198
25123.19,25523.19
78824.65,69224.65
8362.1551,8362.151
342357.5,342357.5
542.08430,542.0853
5085.316,5175.316
2.035958,2.035958
48253.35,48253.36
308.21689,308.2099
206.6640,196.6640
96497.37,97287.38
541363.2,555263.2
902583.2,902383.2
9037.310,9037.310
4378.56,4378.553
70227.23,69817.23
490978.0,498479.0
98856.9,88656.90
386331.60,374631.6
53776.03,53576.03
19887.0,18888.00
6084.4590,6084.449
5.682458,5.691458
9752.0719,9752.072
94561.14,93661.14
22204.09,21794.09
624158.1,624658.1
888083.5,888183.5
3323.704,3323.704
621.3078,621.3078
554.2815,554.2815
51718.74,51618.74
49.45328,49.44528
9.699663,9.690663
923132.1,922322.1
8.424979,8.424979
2.710035,2.710135
79.90721,79.90611
39130.05,39730.06
815.7578,711.7468
469999.7,459999.7
686.097,686.0918
5160.160,5260.150
5048.38,5048.381
6.375183,6.375183
1785.2720,1685.272
88120.71,88820.71
54.86314,54.86106
9.941320,9.941320
564.2201,564.2101
7956.0639,7946.063
8976.8659,8976.866
5.8343350,5.833334
640940.1,639940.1
543.5623,533.5623
2.719803,2.728033
84.60583,84.60463
7140.636,7140.637
192.5096,182.4996
6.770581,6.760581
534368.0,533268.0
38245.0,39445.00
4.254271,4.164271
5863.589,5863.589
49555.56,49055.56
7761.94,7661.946
486849.5,478049.5
942303.2,942403.2
951655.4,953255.4
8.94579,8.944790
6283.89,6373.889
810.532,810.5320
787.8593,787.8493
731.2583,741.2483
87857.39,88057.39
380142.4,380242.4
32200.839,32913.84
84.85902,84.86102
431.8800,531.8801
1.817115,1.817115
8455.7720,8445.772
94453.21,94253.21
36.44360,36.44360
6048.922,6048.923
8.016422,8.016371
267.05980,277.0498
42127.939,42827.94
8.687944,8.688084
719.3529,729.3529
690.878,688.8700
554.7747,454.7747
242882.5,243662.5
506765.9,506765.9
9.535434,9.534484
1117.7154,927.7154
435.8258,435.8258
89.99891,89.99388
72619.13,71819.13
32.65459,32.65469
61130.47,61830.47
9604.9070,9514.898
1435.65,1535.649
7605.544,7883.544
937015.6,946705.6
954.1451,954.1393
379926.6,373326.7
3.363397,3.364297
1232.97,1232.978
2.523859,2.523859
459971.7,447371.6
2418.768,2418.768
607.8358,607.8258
4.224215,4.223215
53.29376,53.29176
66201.29,66301.29
892021.60,890921.6
678.61112,678.6112
2.677941,2.677941
457985.3,457985.3
7.258698,7.248698
9.387376,9.387376
144955.2,153455.2
8.401653,8.400653
55314.87,55114.87
8469.9240,8369.924
510017.9,514927.9
45.23270,45.22670
982845.0,982845.0
110.5144,110.5142
992962.3,976062.3
4.599701,4.590681
409500.5,409500.5
3.8894006,3.879406
597.9179,605.9179
47.571850,47.57099
4090.2440,3990.244
5.653439,5.653439
62.1576,62.14764
6.608404,6.608404
3.232916,3.232916
781.5892,784.5892
648248.1,648148.1
140.7689,140.7689
847.5716,947.5716
9977.22,9877.224
50.412330,50.41233
349941.4,343141.4
3.095803,3.095803
4981.37,4981.378
1329.45,1328.450
41.097050,41.09705
3519.992,3519.992
92220.05,92720.05
97.29352,97.29052
12.76167,12.76167
77.00270,77.00270
175578.8,165978.8
330.6580,330.6581
68160.46,68260.46
586844.6,588944.6
95.28961,95.27761
387972.9,382172.9
12352.919,12342.92
87460.25,86060.26
9866.831,9866.821
58125.51,58435.51
17225.27,16125.27
215013.5,207613.5
3129.016,3229.021
60559.0,60459.01
82.97977,82.96977
337.71640,337.7084
9.434707,9.441807
72.39873,72.39873
1.972169,1.970969
44.01313,44.01413
227.1154,217.1144
806.8184,826.8184
263.4281,263.4283
7783.9640,7683.964
80337.57,80937.57
9941.79,10041.79
1091.19,1261.197
13031.65,13031.65
