pred,true
64.76525405,64.76525405
69348929.53,70348929.53
915746394.2,915746394.2
339835492.3,339835492.3
947177.7018,947177.7018
71.97651913,71.97651913
69902596.2,69902596.20
6954.109763,6954.109763
513.8203313,513.8203313
619625.0522,619625.0522
500690.4938,500690.4938
2844.691284,2844.691284
10018.70211,10018.70211
829703.852,829703.8520
7705.833789,7705.833789
1016880.899,1016880.899
47.04207395,47.04207395
1753107.935,1753107.935
31328.08532,31328.08532
84025367.87,84025367.87
1180160.384,1180160.384
33879846.76,33879846.76
372.3572422,372.3572422
2.307142721,2.307142721
4096.313681,4096.313681
25.34270848,25.34270848
920532.1277,920532.1277
784.2364503,784.2364503
583.7478268,583.7478268
402083907.8,402083907.8
341.7290986,341.7290986
37.07751332,37.07751332
5.868004275,5.868004275
775.7047784,775.7047784
2689564.863,2689564.863
70489.53163,70489.53163
524834249.0,524840249.0
38.52566816,38.52566816
6.930587971,6.930587971
87.57974427,87.57974427
8.139335597,8.139335597
955645136.0,955645136.0
636096.5923,636096.5923
9521.403476,9521.403476
947302.5697,947302.5697
580333.4358,580333.4358
89359.31812,89359.31812
364035361.7,364035361.7
53811265.20,53811265.20
594755253.1,594755253.1
3.656979554,3.656979554
90028.89774,90028.89774
639916.7904,639916.7904
3904.686270,3904.686270
79.40881119,79.40881119
39392965.53,39392965.53
41.07417376,41.07417376
3.109664523,3.109664523
6247.277751,6247.277751
843115.6426,843115.6426
302.2469663,302.2469663
48105.44699,48105.44699
89.31975238,89.31975238
38.15799395,38.15799395
1703503.407,1703503.407
12.37054702,12.37054702
9.010213762,9.010213762
446446140.1,446446140.1
529585535.9,529585535.9
580.3104387,580.3104387
19641.98199,19641.98199
45135.00977,45135.00977
661.5116479,661.5116479
390277116.7,390277116.7
70631603.56,70631603.56
860570.4117,860570.4117
7.288407754,7.288407754
98325478.22,98325478.22
78.75961863,78.75961863
4.544959620,4.544959620
1901.894585,1901.894585
1708185.693,1708185.693
21.77277369,21.77277369
422018.9056,422018.8956
349.6531133,349.6531133
319787298.8,319787298.8
5.185107027,5.185107027
54204383.43,54204383.43
410.9963178,410.9963178
855.9926694,855.9926694
6888.512242,6888.512242
709415.7785,709415.7785
6.392718667,6.392718667
41260.87318,41260.87318
424522557.6,424522557.6
1091950.222,1091950.222
79806299.56,79806299.56
18759.16858,18759.16858
4652247.749,4652247.749
9203791.662,9203791.662
70640497.3,70640497.30
2.629871474,2.629871474
8506118.099,8506118.099
673106434.9,673106434.9
7544134.493,7544134.493
9135471.218,9135471.218
1564720.496,1564720.496
4779802.726,4779802.726
6.20111693,6.201116930
7.290104207,7.290104207
654585566.8,654585566.8
94257313.12,94257313.12
3638.245497,3638.245497
5860.908658,5860.908658
8182583.24,8182583.240
39036.80146,39036.80146
142800.7512,142800.7512
82491.3316,82491.33160
3.382879065,3.382879065
72.65129889,72.65129889
4.881732730,4.881732730
714556705.5,714556705.5
819153.3323,819153.3323
953.0979273,953.0979273
6623665.934,6623665.934
42239.80116,42239.80116
290293.349,290293.3490
64.72763743,64.72763743
825062371.0,825062371.0
26228.00118,26228.00118
343902097.2,343902097.2
7.616724634,7.616724634
955.0006372,955.0006372
199283595.0,199283595.0
751736251.3,751736251.3
52209.04016,52209.04016
39802836.30,29901836.30
385296045.6,385296045.6
928683.3480,928683.3480
304833266.3,304833266.3
698589474.7,698589474.7
6160.226563,6160.226563
11712187.65,11712187.65
1352.735018,1352.735018
9211371.193,9211371.193
25787254.38,25787254.38
60971.05463,60971.05463
9493554.656,9493554.656
39562277.55,39562277.55
5.984626178,5.984626178
8402.108854,8402.108854
6.090823018,6.090823018
21649.07538,21649.07538
30919000.22,30919000.22
57.23830432,57.23830432
78753646.33,78753646.33
376.9030195,376.9030195
74322557.1,74322557.10
82.26171731,82.26171731
7.988264844,7.988264844
307.9305572,307.9305572
5114.514801,5114.514801
67.03115924,67.03115924
105545175.8,105545175.8
13625.72252,13625.72252
233410.4940,233410.4940
869606.2518,869606.2518
4688980.349,4688980.349
638116.1401,638116.1401
87720001.88,87720001.88
2.901360965,2.901359965
294.2740542,304.2740542
7080767.039,7080767.039
71280130.83,71280130.83
73.96233066,73.96233066
28.44285715,28.44285715
26486722.51,26406722.51
29605.73372,29605.73372
8960.440761,8960.440761
9516426.827,9516426.827
619.1653507,619.1653507
5712964.278,5712964.278
438.8248285,438.8248285
76508468.24,76508468.24
89.82882971,89.82882971
2403924.571,2403924.571
295970559.1,295972559.1
3789020.957,3789020.957
847136592.4,847136592.4
90139259.27,90139259.27
266795404.3,266795404.3
87768.34740,87768.34740
56989.20850,56989.20850
9668.945276,9668.945276
576.2019345,576.2019345
56090.13756,56100.13756
39194.6942,39194.69420
5.700902889,5.700902889
693831.8080,693831.8080
539.3428963,539.3428963
482.2245048,482.2245048
323.9905872,323.9905872
82122.12262,82122.12262
139.7535100,139.7535100
4.40971291,4.409712910
7098.969547,7098.969547
877.1452619,877.1452619
227.0853885,227.0853885
741.4474408,741.4474408
5267090.931,5267090.931
5846.525903,5846.525903
4755165.188,4755165.188
6910.734681,6910.734681
74.26874586,74.26874586
568965597.9,568965597.9
42283.87771,42283.87771
62909.28522,62789.28522
3457564.645,3457564.645
63234186.34,63234186.34
2520.969374,2520.969374
3.860068630,3.860068630
29763687.65,29763687.65
63229.04245,63229.04245
495688661.2,495688661.2
31009.03770,31010.03770
335.4557220,335.4557220
897498382.2,897498382.2
824.6856372,824.6856372
789.0731538,789.0731538
7.846652229,7.846652229
788604.0507,788604.0507
289.6551194,289.6551194
590.7379608,590.7379608
43612.22964,43612.22964
6352.411935,6352.411935
404220.5659,404220.5659
61652.65445,61652.65445
962273.5901,962483.5901
44.87232128,44.87232128
1.453892134,1.453892134
37461422.14,37463022.14
724728660.0,724728660.0
41284.28234,41284.28234
7.678110026,7.678110026
63294.05143,63294.05143
9675216.576,9675216.576
651240.7771,651240.7771
2641880.385,2641880.385
640104874.5,640104874.5
5249.663796,5249.663796
5838912.63,5838912.630
3.075625250,3.075625250
800.9195757,900.9195757
575470.5081,575470.5081
861120404.7,861120404.7
7.922219614,7.922219614
27709683.27,27709683.27
812766.9566,812766.9566
804.4592106,804.4592106
611836.2698,611836.2698
5785.161859,5785.161859
4840206.533,4840206.533
797.5736653,797.5736653
6430.797302,6430.797302
194285.3845,194285.3845
83619.13422,83619.13422
958643939.0,958643940.0
38974304.21,38974304.21
9280225.397,9280225.397
31952.66766,31952.66766
256005.9061,256045.9061
87.78596670,87.78596670
99353154.47,99353154.47
4.706622800,4.706622800
3.816361441,3.816361441
54789.22281,54789.22281
5904441.062,5904441.062
8027.64074,8027.640740
291.1014715,291.1014715
613843.1013,613843.1013
7.809320798,7.809320798
9187.215082,9187.215082
61880953.7,61879953.70
794996.8414,794996.8414
122.9081554,122.9081554
90233621.13,90702231.13
195466.6854,195466.6854
21545.58317,21545.58317
7.007922889,8.007922889
775733080.6,775733080.6
43038340.08,43038340.08
225114.3345,225114.3345
1580.309616,1580.309616
23.85111909,23.85111909
23822224.33,24015384.33
79.43046297,79.43046297
64816.53721,64816.53721
2289011.122,2289011.122
610009434.1,609999434.1
270.4428843,270.4428843
4.456285699,4.456285699
6.161374183,6.161374183
339363484.9,339395984.9
30.27083546,30.27083546
598569795.4,598569795.4
537848259.4,537848259.4
123.5803732,123.5803732
90.40406877,90.40406877
2037664.945,2037664.945
246.8264451,246.8264451
3128.383736,3128.383736
709847.9217,709847.9217
18.86156038,18.86156038
1.846881823,1.846881823
932054.6259,932054.6259
942.7754569,942.7754569
744453455.4,744447455.4
1.111457512,1.111457512
9.506988025,9.506988025
77457767.77,77457767.77
469842.4324,469842.4324
4.32743235,4.327432350
6.617397342,6.617397342
8347.191299,8347.191299
1.344341436,1.344341436
27844965.43,27844965.43
30631.49343,30631.49343
60784472.37,60784472.37
26661208.92,26661208.92
501587831.4,501587831.4
8233082.502,8233082.502
948.3667510,948.3667510
7741.743435,7741.743435
9535666.852,9535666.852
46187046.49,46187046.49
3.487913525,3.487913525
309.3495873,309.3495873
86159671.57,86159671.57
541399.7982,541399.6982
990186.639,1000186.639
1480.002899,1481.002899
2.082633095,2.082633095
8.655664113,8.655664113
861.3151903,861.3151903
673537646.4,673537646.4
835.8189090,835.8189090
748818.8548,748818.8548
1760779.937,1760779.937
287867506.9,287864106.9
8729168.089,8729168.089
3.710399100,3.710399100
429.4400423,429.4400423
4821127.516,4821127.516
4701957.88,4701957.880
91135.44643,91135.44643
1977928.823,1977928.823
569324.5778,569324.5778
66.49804432,66.49804432
4116.890548,4116.890548
28088475.64,28088675.64
40652146.27,40652146.27
97811730.61,97811730.61
67294055.13,67294055.13
1153775.291,1153775.291
5342596.207,5342596.207
8092.186342,8092.186342
1.055784980,1.055784980
1.400959244,1.400959244
419094.8241,419094.8241
39582.63538,39582.63538
46119.36825,46119.36825
46400.67498,46400.67498
7526.438848,7526.438848
564091.1814,564091.1814
42139082.06,42139082.06
49108.28646,49108.28646
4914555.015,4914555.015
384.4012662,384.4012662
5.092689942,5.092689942
327009806.5,326999806.5
82783.04821,82783.04821
18919089.49,18919089.49
6103937.606,6200647.606
600.9429947,599.9429947
384425.8486,384475.8486
55653616.59,55653616.59
570368277.0,570368277.0
44.24110018,44.24110018
273.1499553,273.1499553
74636008.59,74635998.59
871107149.8,871107149.8
433.3293387,433.3293387
44.42474036,44.42474036
179.2903569,179.2903569
680.9886421,679.9886421
674720067.3,674720067.3
559284.181,559284.1810
545.8350536,545.8350536
72054.29919,72054.29919
576201331.8,576201331.8
5770756.244,5770756.244
99046.21166,99046.21166
49.23604771,49.23604771
12.06770517,12.06770517
4658579.419,4658579.419
881210122.6,881210122.6
508327.1580,508327.1580
437.7018245,437.7018245
9689814.381,9689814.381
2.104235962,2.104235962
675337911.8,675337911.8
25936.64903,25936.64903
178207.3531,178197.3531
99781324.85,99781324.85
163.1017779,163.1017779
7892503.36,7892503.360
35249291.04,35249291.04
853.2403231,853.2403231
5.202211757,5.202211757
96.47814463,96.47814463
41.11667800,41.11667800
747026221.5,747024981.5
5539761.875,5539761.875
985.942952,985.9429520
36756.3129,36756.31290
34.61414223,34.61414223
8545537.605,8545537.605
821455.9395,821455.9395
1499686.05,1499756.050
62008.20234,62008.20234
67334.22091,67334.21991
832944851.7,832944851.7
31.87715743,31.87715743
5.542833497,5.542833497
11485310.04,11485310.04
4.779668316,4.779668316
691573638.8,691573638.8
30404.28226,30404.28226
838536960.7,838536960.7
419923641.9,419923641.9
8380.293686,8380.293686
6540.084266,6540.084266
2707.994392,2706.994392
9.061673752,9.061673752
75.5394560,75.53945600
501819438.6,501819438.6
340920489.0,340920489.0
43396.65213,43396.65213
650600381.7,650599381.7
855.0799066,855.0799066
65.03715208,65.03715208
71242940.97,71242939.97
91276969.01,91275969.01
91817344.73,91817344.73
9.909334180,9.899334180
62785509.35,62785499.35
5.348166646,5.348166646
409278108.2,409278098.2
86104.38363,86104.38363
2260908.618,2260908.618
7.566996198,7.566996198
705352156.2,705352156.2
6475189.638,6475189.638
81706.26328,81706.26328
382.1289742,382.1289742
974247.3982,974247.3982
4782354.451,4782354.451
34.46791482,34.46791482
2748.256389,2748.256389
8963395.848,8963395.848
750695.8993,750695.8993
2019805.485,3019805.485
84486.55315,84486.55315
33389.61944,33389.61944
52425.25974,52425.25974
4599028.565,4599028.565
3.342310922,3.342310922
8591839.634,8591839.634
92107601.69,92107601.69
2352893.368,2352893.368
5483068.607,5483068.607
394.8595357,394.8595357
45661925.14,45661925.14
837143.6421,837143.6421
7845.923238,7855.923238
26681.68111,26681.68111
601.1805227,601.1805227
439434913.6,439434913.6
52227.60174,52227.60174
52107598.91,52107598.91
43.91109331,43.91109331
50603927.11,50603927.11
87452854.87,87452854.87
359.5518223,359.5518223
3067.811009,3067.811009
69219.21619,69219.21619
8.460776517,8.460776517
7111408.017,7111408.017
2302.922205,2302.922205
3491.556992,3491.556992
